<?xml version="1.0" encoding="UTF-8" standalone="no"?>
<!-- Created with Inkscape (http://www.inkscape.org/) -->

<svg
   version="1.1"
   id="svg2"
   xml:space="preserve"
   width="841.27997"
   height="780.15997"
   viewBox="0 0 841.27997 780.15997"
   sodipodi:docname="dataflow.svg"
   inkscape:version="1.1.2 (0a00cf5339, 2022-02-04)"
   xmlns:inkscape="http://www.inkscape.org/namespaces/inkscape"
   xmlns:sodipodi="http://sodipodi.sourceforge.net/DTD/sodipodi-0.dtd"
   xmlns="http://www.w3.org/2000/svg"
   xmlns:svg="http://www.w3.org/2000/svg"><defs
     id="defs6"><clipPath
       clipPathUnits="userSpaceOnUse"
       id="clipPath16"><path
         d="M 0,0 H 2629.1665 V 2435.5698 H 0 Z"
         clip-rule="evenodd"
         id="path14" /></clipPath><clipPath
       clipPathUnits="userSpaceOnUse"
       id="clipPath28"><path
         d="M 0,0 H 2629.1665 V 2435.5698 H 0 Z"
         clip-rule="evenodd"
         id="path26" /></clipPath><clipPath
       clipPathUnits="userSpaceOnUse"
       id="clipPath50"><path
         d="M 0,0 H 2629.1665 V 2435.5698 H 0 Z"
         id="path48" /></clipPath><clipPath
       clipPathUnits="userSpaceOnUse"
       id="clipPath56"><path
         d="M 0,0 H 2629.1665 V 2438.6924 H 0 Z"
         id="path54" /></clipPath><clipPath
       clipPathUnits="userSpaceOnUse"
       id="clipPath62"><path
         d="m 294.86008,2045.901 h 405.80423 v 290.5834 H 294.86008 Z"
         id="path60" /></clipPath><clipPath
       clipPathUnits="userSpaceOnUse"
       id="clipPath68"><path
         d="m 355.73071,2045.901 h 284.06293 l 60.87067,290.5834 H 294.86008 Z"
         id="path66" /></clipPath><clipPath
       clipPathUnits="userSpaceOnUse"
       id="clipPath80"><path
         d="M 0,0 H 2629.1665 V 2435.5698 H 0 Z"
         clip-rule="evenodd"
         id="path78" /></clipPath><clipPath
       clipPathUnits="userSpaceOnUse"
       id="clipPath134"><path
         d="M 0,0 H 2629.1665 V 2435.5698 H 0 Z"
         id="path132" /></clipPath><clipPath
       clipPathUnits="userSpaceOnUse"
       id="clipPath140"><path
         d="M 0,0 H 2629.1665 V 2438.6924 H 0 Z"
         id="path138" /></clipPath><clipPath
       clipPathUnits="userSpaceOnUse"
       id="clipPath146"><path
         d="m 2048.842,1510.1612 h 344.3721 v 286.8793 H 2048.842 Z"
         id="path144" /></clipPath><clipPath
       clipPathUnits="userSpaceOnUse"
       id="clipPath152"><path
         d="m 2156.6931,1538.7539 c 0,0 2.1453,0.7178 2.1453,0.7178 0,0 1.2239,-1.9004 1.2239,-1.9004 10.9567,-17.0704 29.8562,-27.3871 50.1455,-27.3729 22.208,0 42.2478,12.248 52.5554,31.4614 0,0 1.3982,2.6123 1.3982,2.6123 0,0 2.584,-1.45 2.584,-1.45 7.5903,-4.257 16.1501,-6.4859 24.8535,-6.4713 28.0945,0 50.8694,22.7672 50.8694,50.8521 0,2.191 -0.1397,4.3646 -0.4129,6.5119 0,0 -0.3198,2.4904 -0.3198,2.4904 0,0 2.4185,0.677 2.4185,0.677 28.0073,7.837 47.7302,33.4607 47.7302,62.9666 0,27.2247 -16.8015,51.3054 -41.7713,60.9847 0,0 -1.9126,0.741 -1.9126,0.741 0,0 0.058,2.0487 0.058,2.0487 0.015,0.5346 0.023,1.0693 0.023,1.6069 0,30.4908 -24.7282,55.2108 -55.2295,55.2108 -10.6325,0.018 -21.0419,-3.0471 -29.9665,-8.8251 0,0 -2.302,-1.4906 -2.302,-1.4906 0,0 -1.6221,2.2143 -1.6221,2.2143 -10.3911,14.2359 -26.9648,22.6468 -44.5935,22.6306 -19.0652,0.013 -36.7864,-9.8121 -46.8696,-25.9869 0,0 -1.4158,-2.2665 -1.4158,-2.2665 0,0 -2.3747,1.2204 -2.3747,1.2204 -8.6097,4.4132 -18.1487,6.7076 -27.8243,6.6922 -33.7133,0 -61.0432,-27.3207 -61.0432,-61.0226 0,-7.5319 1.3662,-14.8721 3.9939,-21.756 0,0 0.9507,-2.4902 0.9507,-2.4902 0,0 -2.3982,-1.1624 -2.3982,-1.1624 -17.5603,-8.4955 -28.7129,-26.2823 -28.7077,-45.7843 0,-25.6643 19.1269,-47.2198 44.361,-50.4394 0,0 2.8777,-0.3692 2.8777,-0.3692 0,0 -0.3606,-2.8767 -0.3606,-2.8767 -0.2461,-1.9518 -0.3694,-3.9171 -0.3691,-5.8843 0,-25.6789 20.8218,-46.4934 46.5093,-46.4934 5.0927,0 10.072,0.8166 14.7956,2.4031 z"
         id="path150" /></clipPath><clipPath
       clipPathUnits="userSpaceOnUse"
       id="clipPath164"><path
         d="M 0,0 H 2629.1665 V 2435.5698 H 0 Z"
         clip-rule="evenodd"
         id="path162" /></clipPath><clipPath
       clipPathUnits="userSpaceOnUse"
       id="clipPath178"><path
         d="M 0,0 H 2629.1665 V 2435.5698 H 0 Z"
         id="path176" /></clipPath><clipPath
       clipPathUnits="userSpaceOnUse"
       id="clipPath184"><path
         d="M 0,0 H 2629.1665 V 2438.6924 H 0 Z"
         id="path182" /></clipPath><clipPath
       clipPathUnits="userSpaceOnUse"
       id="clipPath190"><path
         d="m 2048.842,708.81903 h 344.3721 V 995.69824 H 2048.842 Z"
         id="path188" /></clipPath><clipPath
       clipPathUnits="userSpaceOnUse"
       id="clipPath196"><path
         d="m 2156.6931,737.41174 c 0,0 2.1453,0.71772 2.1453,0.71772 0,0 1.2239,-1.9004 1.2239,-1.9004 10.9567,-17.07043 29.8562,-27.38702 50.1455,-27.37298 22.208,0 42.2478,12.24811 52.5554,31.46149 0,0 1.3982,2.61236 1.3982,2.61236 0,0 2.584,-1.45001 2.584,-1.45001 7.5903,-4.25708 16.1501,-6.48596 24.8535,-6.47131 28.0945,0 50.8694,22.76721 50.8694,50.85211 0,2.19098 -0.1397,4.36456 -0.4129,6.51196 0,0 -0.3198,2.4903 -0.3198,2.4903 0,0 2.4185,0.67706 2.4185,0.67706 28.0073,7.83704 47.7302,33.46069 47.7302,62.96655 0,27.22473 -16.8015,51.30536 -41.7713,60.98474 0,0 -1.9126,0.74097 -1.9126,0.74097 0,0 0.058,2.04858 0.058,2.04858 0.015,0.53467 0.023,1.06934 0.023,1.60694 0,30.49096 -24.7282,55.21087 -55.2295,55.21087 -10.6325,0.0184 -21.0419,-3.04718 -29.9665,-8.82501 0,0 -2.302,-1.49072 -2.302,-1.49072 0,0 -1.6221,2.21423 -1.6221,2.21423 -10.3911,14.23596 -26.9648,22.64698 -44.5935,22.63068 -19.0652,0.0134 -36.7864,-9.8122 -46.8696,-25.98688 0,0 -1.4158,-2.2666 -1.4158,-2.2666 0,0 -2.3747,1.22046 -2.3747,1.22046 -8.6097,4.41327 -18.1487,6.70764 -27.8243,6.69214 -33.7133,0 -61.0432,-27.32062 -61.0432,-61.02246 0,-7.53199 1.3662,-14.87207 3.9939,-21.75599 0,0 0.9507,-2.49035 0.9507,-2.49035 0,0 -2.3982,-1.16229 -2.3982,-1.16229 -17.5603,-8.49555 -28.7129,-26.28241 -28.7077,-45.78437 0,-25.6643 19.1269,-47.21978 44.361,-50.43945 0,0 2.8777,-0.36902 2.8777,-0.36902 0,0 -0.3606,-2.87683 -0.3606,-2.87683 -0.2461,-1.95172 -0.3694,-3.91705 -0.3691,-5.88428 0,-25.67883 20.8218,-46.49334 46.5093,-46.49334 5.0927,0 10.072,0.81652 14.7956,2.40313 z"
         id="path194" /></clipPath><clipPath
       clipPathUnits="userSpaceOnUse"
       id="clipPath208"><path
         d="M 0,0 H 2629.1665 V 2435.5698 H 0 Z"
         clip-rule="evenodd"
         id="path206" /></clipPath><clipPath
       clipPathUnits="userSpaceOnUse"
       id="clipPath232"><path
         d="M 0,0 H 2629.1665 V 2435.5698 H 0 Z"
         id="path230" /></clipPath><clipPath
       clipPathUnits="userSpaceOnUse"
       id="clipPath238"><path
         d="M 0,0 H 2629.1665 V 2438.6924 H 0 Z"
         id="path236" /></clipPath><clipPath
       clipPathUnits="userSpaceOnUse"
       id="clipPath244"><path
         d="m 1155.9277,996.55853 h 405.8042 V 1287.142 h -405.8042 z"
         id="path242" /></clipPath><clipPath
       clipPathUnits="userSpaceOnUse"
       id="clipPath250"><path
         d="m 1216.7983,996.55853 h 284.063 l 60.8706,290.58347 h -405.8042 z"
         id="path248" /></clipPath><clipPath
       clipPathUnits="userSpaceOnUse"
       id="clipPath262"><path
         d="M 0,0 H 2629.1665 V 2435.5698 H 0 Z"
         clip-rule="evenodd"
         id="path260" /></clipPath><clipPath
       clipPathUnits="userSpaceOnUse"
       id="clipPath282"><path
         d="M 0,0 H 2629.1665 V 2435.5698 H 0 Z"
         id="path280" /></clipPath><clipPath
       clipPathUnits="userSpaceOnUse"
       id="clipPath288"><path
         d="M 0,0 H 2629.1665 V 2438.6924 H 0 Z"
         id="path286" /></clipPath><clipPath
       clipPathUnits="userSpaceOnUse"
       id="clipPath294"><path
         d="M 294.86008,56.935501 H 700.66431 V 347.51894 H 294.86008 Z"
         id="path292" /></clipPath><clipPath
       clipPathUnits="userSpaceOnUse"
       id="clipPath300"><path
         d="M 355.73071,56.935501 H 639.79364 L 700.66431,347.51892 H 294.86008 Z"
         id="path298" /></clipPath><clipPath
       clipPathUnits="userSpaceOnUse"
       id="clipPath312"><path
         d="M 0,0 H 2629.1665 V 2435.5698 H 0 Z"
         clip-rule="evenodd"
         id="path310" /></clipPath></defs><sodipodi:namedview
     id="namedview4"
     pagecolor="#ffffff"
     bordercolor="#666666"
     borderopacity="1.0"
     inkscape:pageshadow="2"
     inkscape:pageopacity="0.0"
     inkscape:pagecheckerboard="0"
     showgrid="false"
     inkscape:zoom="0.92160586"
     inkscape:cx="365.66608"
     inkscape:cy="390.07999"
     inkscape:window-width="1551"
     inkscape:window-height="1392"
     inkscape:window-x="875"
     inkscape:window-y="510"
     inkscape:window-maximized="0"
     inkscape:current-layer="g8" /><g
     id="g8"
     inkscape:groupmode="layer"
     inkscape:label="dataflow"
     transform="matrix(0.31999998,0,0,0.31999998,0,1.9504e-5)"><g
       id="g898"><g
         id="g34"
         transform="matrix(2.8697679,0,0,2.8687923,1944.8961,2121.4717)"><path
           d="M 192,0 H 8 C 7.4747124,0 6.9544716,0.05123925 6.4392772,0.15371777 5.9240832,0.25619629 5.4238353,0.40794495 4.9385328,0.60896379 4.4532304,0.8099826 3.9921989,1.056409 3.555438,1.3482431 3.1186776,1.6400771 2.7145803,1.9717114 2.3431458,2.3431458 1.9717114,2.7145803 1.6400772,3.1186776 1.3482432,3.5554383 1.0564091,3.9921989 0.8099826,4.4532304 0.60896379,4.9385328 0.40794495,5.4238353 0.25619629,5.9240832 0.15371777,6.4392772 0.05123925,6.9544716 0,7.4747124 0,8 v 32.619778 c 0,0.525287 0.05123924,1.045528 0.15371774,1.560722 0.10247849,0.51519 0.25422712,1.015438 0.45524593,1.50074 0.20101881,0.485302 0.44744523,0.946331 0.73927933,1.383095 0.2918341,0.436764 0.6234682,0.840862 0.9949026,1.212295 0.3714342,0.371434 0.7755315,0.703068 1.212292,0.9949 0.4367606,0.291836 0.8977918,0.538262 1.3830943,0.739277 0.4853024,0.201019 0.9855509,0.352768 1.5007453,0.455246 C 6.9544711,48.568531 7.4747119,48.619774 8,48.619778 H 192 M 30,0 v 48.619778"
           style="fill:none;stroke:#1a1a1a;stroke-width:1;stroke-linecap:butt;stroke-linejoin:miter;stroke-miterlimit:10;stroke-dasharray:none;stroke-opacity:1"
           id="path36" /></g><g
         id="g38"
         transform="matrix(2.8710392,0,0,2.8687923,2076.8489,2132.947)"><text
           transform="translate(44.558334,24.309889)"
           style="font-variant:normal;font-weight:normal;font-size:14px;font-family:OpenSans;-inkscape-font-specification:OpenSans-Regular;writing-mode:lr-tb;fill:#1a1a1a;fill-opacity:1;fill-rule:nonzero;stroke:none"
           id="text42"><tspan
             x="0 10.192383 15.907227 23.693359 32.272461"
             y="0"
             sodipodi:role="line"
             id="tspan40">Graph</tspan></text></g><g
         id="g44"><g
           id="g46"
           clip-path="url(#clipPath50)"><g
             id="g52"
             clip-path="url(#clipPath56)"><g
               id="g58"
               clip-path="url(#clipPath62)"><g
                 id="g64"
                 clip-path="url(#clipPath68)"><g
                   id="g70"
                   transform="matrix(2.8697679,0,0,2.8687923,294.86008,2045.901)"><path
                     d="m 21.210993,0 h 98.984637 l 21.211,101.29121 H 0 Z"
                     style="fill:none;stroke:#1a1a1a;stroke-width:1;stroke-linecap:butt;stroke-linejoin:miter;stroke-miterlimit:10;stroke-dasharray:none;stroke-opacity:1"
                     id="path72" /></g></g></g></g></g></g><g
         id="g74"><g
           id="g76"
           clip-path="url(#clipPath80)"><g
             id="g82"
             transform="matrix(2.8701024,0,0,2.8687923,396.31046,2060.4302)"><text
               transform="translate(1.9933226,39.581043)"
               style="font-variant:normal;font-weight:normal;font-size:14px;font-family:OpenSans;-inkscape-font-specification:OpenSans-Regular;writing-mode:lr-tb;fill:#1a1a1a;fill-opacity:1;fill-rule:nonzero;stroke:none"
               id="text86"><tspan
                 x="0 8.5791016 17.035156 23.700195 32.292969 45.31543 53.169922 61.762695 66.705078"
                 y="0"
                 sodipodi:role="line"
                 id="tspan84">document </tspan></text></g><g
             id="g88"
             transform="matrix(2.8704391,0,0,2.8687923,396.30133,2060.4302)"><text
               transform="translate(14.609989,59.581043)"
               style="font-variant:normal;font-weight:normal;font-size:14px;font-family:OpenSans;-inkscape-font-specification:OpenSans-Regular;writing-mode:lr-tb;fill:#1a1a1a;fill-opacity:1;fill-rule:nonzero;stroke:none"
               id="text92"><tspan
                 x="0 8.5791016 17.171875 25.026367 33.619141"
                 y="0"
                 sodipodi:role="line"
                 id="tspan90">queue</tspan></text></g><g
             id="g94"
             transform="matrix(2.8697679,0,0,2.8687923,1155.9277,2020.2738)"><path
               d="m 121.27919,59.577759 c 1e-5,1.951248 -0.0973,3.897796 -0.292,5.839645 -0.19466,1.941849 -0.48572,3.869644 -0.87318,5.783394 -0.38745,1.91375 -0.86943,3.804245 -1.44594,5.671471 -0.57652,1.867218 -1.24478,3.702186 -2.00481,5.504898 -0.76002,1.802711 -1.60812,3.564491 -2.54433,5.285339 -0.9362,1.720841 -1.95599,3.392464 -3.05937,5.01487 -1.10337,1.622398 -2.28501,3.187767 -3.54493,4.696106 -1.25991,1.508331 -2.59204,2.952368 -3.99637,4.332108 -1.40432,1.37974 -2.87409,2.68855 -4.40932,3.9264 -1.53521,1.23785 -3.128479,2.3988 -4.7798,3.48285 -1.651306,1.08405 -3.352715,2.08599 -5.104233,3.0058 -1.751518,0.91981 -3.544701,1.75307 -5.379547,2.49978 -1.834839,0.74671 -3.702515,1.40328 -5.60302,1.9697 -1.900505,0.56641 -3.824684,1.03995 -5.772552,1.42061 -1.947853,0.38067 -3.910012,0.66665 -5.886467,0.85791 -1.976464,0.19125 -3.957703,0.28688 -5.943726,0.28688 -1.986019,0 -3.967258,-0.0956 -5.943718,-0.28688 -1.976459,-0.19126 -3.938618,-0.47724 -5.886482,-0.85791 -1.947857,-0.38066 -3.87204,-0.8542 -5.772545,-1.42061 -1.900505,-0.56642 -3.768181,-1.22299 -5.603027,-1.9697 -1.834843,-0.74671 -3.628022,-1.57997 -5.379536,-2.49978 -1.751514,-0.91981 -3.45293,-1.92175 -5.104248,-3.0058 -1.651316,-1.08405 -3.244581,-2.245 -4.779797,-3.48285 -1.535215,-1.23785 -3.004987,-2.54666 -4.409317,-3.9264 -1.404329,-1.37974 -2.736452,-2.823777 -3.996371,-4.332116 -1.259919,-1.508339 -2.441565,-3.073707 -3.54494,-4.696106 C 9.1162405,91.05497 8.0964508,89.383347 7.1602459,87.662506 6.2240424,85.941658 5.3759317,84.179878 4.6159139,82.377167 3.8558965,80.574455 3.1876321,78.739487 2.6111205,76.872269 2.0346088,75.005043 1.5526264,73.114548 1.1651727,71.200798 0.77771914,69.287048 0.48666036,67.359253 0.29199621,65.417404 0.09733206,63.475555 0,61.529007 0,59.577759 0,57.626514 0.09733206,55.67997 0.29199621,53.738121 0.48666036,51.796268 0.77771914,49.868465 1.1651727,47.954712 c 0.3874537,-1.91375 0.8694361,-3.804237 1.4459478,-5.671459 0.5765116,-1.867226 1.244776,-3.702198 2.0047934,-5.504917 0.7600178,-1.802716 1.6081285,-3.564492 2.5443325,-5.285338 0.9362044,-1.720844 1.9559941,-3.392467 3.0593676,-5.01487 1.103375,-1.6224 2.285021,-3.187767 3.54494,-4.6961 1.259919,-1.508333 2.592042,-2.952368 3.996371,-4.332107 1.40433,-1.379738 2.874102,-2.688535 4.409317,-3.926392 1.535216,-1.237857 3.128481,-2.398812 4.779797,-3.482866 C 28.601357,8.9566097 30.302773,7.9546776 32.054287,7.0348663 33.805801,6.115056 35.59898,5.281796 37.433823,4.5350862 39.268669,3.7883773 41.136345,3.1318145 43.036846,2.565398 44.937355,1.9989815 46.861534,1.5254388 48.809391,1.1447698 50.757256,0.76410079 52.719418,0.47813863 54.695877,0.28688318 56.672337,0.09562773 58.653576,0 60.639595,0 c 1.986023,0 3.967262,0.09562773 5.943726,0.28688318 1.976455,0.19125545 3.938614,0.47721761 5.886474,0.85788662 1.947861,0.380669 3.872048,0.8542117 5.772553,1.4206282 1.900505,0.5664165 3.768173,1.2229793 5.603012,1.9696882 1.834846,0.7467098 3.628029,1.5799698 5.379547,2.4997797 1.751518,0.9198107 3.452927,1.9217429 5.104233,3.0057961 1.651321,1.084054 3.24459,2.245009 4.7798,3.482866 1.53523,1.237857 3.005,2.546655 4.40932,3.926393 1.40433,1.379739 2.73646,2.823774 3.99638,4.332107 1.25991,1.508333 2.44155,3.0737 3.54492,4.6961 1.10338,1.622403 2.12317,3.294026 3.05937,5.01487 0.93621,1.720846 1.78431,3.482622 2.54433,5.285338 0.76003,1.802719 1.42829,3.637691 2.0048,5.504913 0.57651,1.867226 1.05849,3.757713 1.44594,5.671463 0.38746,1.913753 0.67853,3.841556 0.87319,5.783409 0.19467,1.941849 0.29201,3.888393 0.292,5.839638 z"
               style="fill:#ffffff;fill-opacity:1;fill-rule:nonzero;stroke:none"
               id="path96" /><path
               d="m 121.27919,59.577759 c 1e-5,1.951248 -0.0973,3.897796 -0.292,5.839645 -0.19466,1.941849 -0.48572,3.869644 -0.87318,5.783394 -0.38745,1.91375 -0.86943,3.804245 -1.44594,5.671471 -0.57652,1.867218 -1.24478,3.702186 -2.00481,5.504898 -0.76002,1.802711 -1.60812,3.564491 -2.54433,5.285339 -0.9362,1.720841 -1.95599,3.392464 -3.05937,5.01487 -1.10337,1.622398 -2.28501,3.187767 -3.54493,4.696106 -1.25991,1.508331 -2.59204,2.952368 -3.99637,4.332108 -1.40432,1.37974 -2.87409,2.68855 -4.40932,3.9264 -1.53521,1.23785 -3.128479,2.3988 -4.7798,3.48285 -1.651306,1.08405 -3.352715,2.08599 -5.104233,3.0058 -1.751518,0.91981 -3.544701,1.75307 -5.379547,2.49978 -1.834839,0.74671 -3.702515,1.40328 -5.60302,1.9697 -1.900505,0.56641 -3.824684,1.03995 -5.772552,1.42061 -1.947853,0.38067 -3.910012,0.66665 -5.886467,0.85791 -1.976464,0.19125 -3.957703,0.28688 -5.943726,0.28688 -1.986019,0 -3.967258,-0.0956 -5.943718,-0.28688 -1.976459,-0.19126 -3.938618,-0.47724 -5.886482,-0.85791 -1.947857,-0.38066 -3.87204,-0.8542 -5.772545,-1.42061 -1.900505,-0.56642 -3.768181,-1.22299 -5.603027,-1.9697 -1.834843,-0.74671 -3.628022,-1.57997 -5.379536,-2.49978 -1.751514,-0.91981 -3.45293,-1.92175 -5.104248,-3.0058 -1.651316,-1.08405 -3.244581,-2.245 -4.779797,-3.48285 -1.535215,-1.23785 -3.004987,-2.54666 -4.409317,-3.9264 -1.404329,-1.37974 -2.736452,-2.823777 -3.996371,-4.332116 -1.259919,-1.508339 -2.441565,-3.073707 -3.54494,-4.696106 C 9.1162405,91.05497 8.0964508,89.383347 7.1602459,87.662506 6.2240424,85.941658 5.3759317,84.179878 4.6159139,82.377167 3.8558965,80.574455 3.1876321,78.739487 2.6111205,76.872269 2.0346088,75.005043 1.5526264,73.114548 1.1651727,71.200798 0.77771914,69.287048 0.48666036,67.359253 0.29199621,65.417404 0.09733206,63.475555 0,61.529007 0,59.577759 0,57.626514 0.09733206,55.67997 0.29199621,53.738121 0.48666036,51.796268 0.77771914,49.868465 1.1651727,47.954712 c 0.3874537,-1.91375 0.8694361,-3.804237 1.4459478,-5.671459 0.5765116,-1.867226 1.244776,-3.702198 2.0047934,-5.504917 0.7600178,-1.802716 1.6081285,-3.564492 2.5443325,-5.285338 0.9362044,-1.720844 1.9559941,-3.392467 3.0593676,-5.01487 1.103375,-1.6224 2.285021,-3.187767 3.54494,-4.6961 1.259919,-1.508333 2.592042,-2.952368 3.996371,-4.332107 1.40433,-1.379738 2.874102,-2.688535 4.409317,-3.926392 1.535216,-1.237857 3.128481,-2.398812 4.779797,-3.482866 C 28.601357,8.9566097 30.302773,7.9546776 32.054287,7.0348663 33.805801,6.115056 35.59898,5.281796 37.433823,4.5350862 39.268669,3.7883773 41.136345,3.1318145 43.036846,2.565398 44.937355,1.9989815 46.861534,1.5254388 48.809391,1.1447698 50.757256,0.76410079 52.719418,0.47813863 54.695877,0.28688318 56.672337,0.09562773 58.653576,0 60.639595,0 c 1.986023,0 3.967262,0.09562773 5.943726,0.28688318 1.976455,0.19125545 3.938614,0.47721761 5.886474,0.85788662 1.947861,0.380669 3.872048,0.8542117 5.772553,1.4206282 1.900505,0.5664165 3.768173,1.2229793 5.603012,1.9696882 1.834846,0.7467098 3.628029,1.5799698 5.379547,2.4997797 1.751518,0.9198107 3.452927,1.9217429 5.104233,3.0057961 1.651321,1.084054 3.24459,2.245009 4.7798,3.482866 1.53523,1.237857 3.005,2.546655 4.40932,3.926393 1.40433,1.379739 2.73646,2.823774 3.99638,4.332107 1.25991,1.508333 2.44155,3.0737 3.54492,4.6961 1.10338,1.622403 2.12317,3.294026 3.05937,5.01487 0.93621,1.720846 1.78431,3.482622 2.54433,5.285338 0.76003,1.802719 1.42829,3.637691 2.0048,5.504913 0.57651,1.867226 1.05849,3.757713 1.44594,5.671463 0.38746,1.913753 0.67853,3.841556 0.87319,5.783409 0.19467,1.941849 0.29201,3.888393 0.292,5.839638 z"
               style="fill:none;stroke:#1a1a1a;stroke-width:1;stroke-linecap:butt;stroke-linejoin:miter;stroke-miterlimit:10;stroke-dasharray:none;stroke-opacity:1"
               id="path98" /></g><g
             id="g100"
             transform="matrix(2.8700306,0,0,2.8687923,1206.8912,2070.3337)"><text
               transform="translate(23.703671,36.127838)"
               style="font-variant:normal;font-weight:normal;font-size:14px;font-family:OpenSans;-inkscape-font-specification:OpenSans-Regular;writing-mode:lr-tb;fill:#1a1a1a;fill-opacity:1;fill-rule:nonzero;stroke:none"
               id="text104"><tspan
                 x="0 7.6699219 13.384766 21.170898 29.75 38.342773"
                 y="0"
                 sodipodi:role="line"
                 id="tspan102">graph </tspan></text></g><g
             id="g106"
             transform="matrix(2.8698809,0,0,2.8687923,1206.8962,2070.3337)"><text
               transform="translate(10.553669,56.127838)"
               style="font-variant:normal;font-weight:normal;font-size:14px;font-family:OpenSans;-inkscape-font-specification:OpenSans-Regular;writing-mode:lr-tb;fill:#1a1a1a;fill-opacity:1;fill-rule:nonzero;stroke:none"
               id="text110"><tspan
                 x="0 8.5791016 17.035156 25.614258 34.207031 37.748047 45.53418 50.476562 58.932617"
                 y="0"
                 sodipodi:role="line"
                 id="tspan108">populator</tspan></text></g><g
             id="g112"
             transform="matrix(2.8697679,0,0,2.8687923,670.21887,2191.2051)"><path
               d="M 0.80000001,0 H 89.926025 c 0,0 0,0 0,0 0,0 0,0 0,0 h 69.138715"
               style="fill:none;stroke:#333333;stroke-width:1;stroke-linecap:butt;stroke-linejoin:miter;stroke-miterlimit:10;stroke-dasharray:none;stroke-opacity:1"
               id="path114" /></g><g
             id="g116"
             transform="matrix(2.8697679,0,0,2.8687923,1155.9172,2191.2051)"><path
               d="M -12.727273,-7.5454545 0,0 -12.727273,7.5454545 Z"
               style="fill:#333333;fill-opacity:1;fill-rule:nonzero;stroke:none"
               id="path118" /></g><g
             id="g120"
             transform="matrix(2.8697679,0,0,2.8687923,1503.9644,2191.2051)"><path
               d="M 0.80000001,0 H 76.822861 c 0,0 0,0 0,0 0,0 0,0 0,0 h 66.641049"
               style="fill:none;stroke:#333333;stroke-width:1;stroke-linecap:butt;stroke-linejoin:miter;stroke-miterlimit:10;stroke-dasharray:none;stroke-opacity:1"
               id="path122" /></g><g
             id="g124"
             transform="matrix(2.8697679,0,0,2.8687923,1944.892,2191.2051)"><path
               d="M -12.727273,-7.5454545 0,0 -12.727273,7.5454545 Z"
               style="fill:#333333;fill-opacity:1;fill-rule:nonzero;stroke:none"
               id="path126" /></g></g></g><g
         id="g128"><g
           id="g130"
           clip-path="url(#clipPath134)"><g
             id="g136"
             clip-path="url(#clipPath140)"><g
               id="g142"
               clip-path="url(#clipPath146)"><g
                 id="g148"
                 clip-path="url(#clipPath152)"><g
                   id="g154"
                   transform="matrix(2.8697679,0,0,2.8687923,2045.9723,1507.2925)"><path
                     d="m 38.581821,10.966799 c 0,0 0.747529,0.25019 0.747529,0.25019 0,0 0.426437,-0.662445 0.426437,-0.662445 3.818066,-5.9503823 10.403763,-9.5465377 17.473743,-9.541632 7.738648,0 14.721665,4.2694242 18.313454,10.9668 0,0 0.487206,0.910607 0.487206,0.910607 0,0 0.900482,-0.505443 0.900482,-0.505443 2.644874,-1.483925 5.627678,-2.26085 8.6604,-2.255755 9.789795,0 17.725958,7.936166 17.725958,17.725961 0,0.763736 -0.0486,1.521394 -0.14384,2.269935 0,0 -0.11142,0.868067 -0.11142,0.868067 0,0 0.84275,0.236008 0.84275,0.236008 9.75941,2.731823 16.63202,11.663681 16.63202,21.948791 0,9.489975 -5.85463,17.883976 -14.55555,21.257984 0,0 -0.6665,0.258293 -0.6665,0.258293 0,0 0.0203,0.714104 0.0203,0.714104 0.005,0.186379 0.008,0.372749 0.008,0.560143 0,10.628486 -8.616847,19.24533 -19.245333,19.24533 -3.705018,0.0064 -7.332322,-1.062171 -10.442109,-3.076217 0,0 -0.80223,-0.519623 -0.80223,-0.519623 0,0 -0.565201,0.771835 -0.565201,0.771835 -3.62085,4.962349 -9.396172,7.894238 -15.539086,7.888568 -6.643379,0.005 -12.81855,-3.420321 -16.332195,-9.058474 0,0 -0.49329,-0.790077 -0.49329,-0.790077 0,0 -0.827549,0.425422 -0.827549,0.425422 -3.000065,1.538368 -6.324104,2.33812 -9.695593,2.332741 -11.747755,0 -21.271153,-9.523399 -21.271153,-21.271156 0,-2.625466 0.476068,-5.184082 1.391741,-7.583672 0,0 0.331222,-0.868065 0.331222,-0.868065 0,0 -0.835652,-0.405166 -0.835652,-0.405166 C 4.897397,60.098495 1.0111039,53.898369 1.012912,47.10041 c 0,-8.946037 6.6649616,-16.459819 15.45805,-17.582126 0,0 1.002783,-0.128639 1.002783,-0.128639 0,0 -0.1256,-1.002785 -0.1256,-1.002785 -0.08578,-0.680348 -0.128748,-1.365412 -0.12864,-2.051146 0,-8.951105 7.25549,-16.206593 16.206593,-16.206593 1.774624,0 3.509743,0.284628 5.155723,0.837678 z"
                     style="fill:none;stroke:#1a1a1a;stroke-width:1;stroke-linecap:butt;stroke-linejoin:miter;stroke-miterlimit:10;stroke-dasharray:none;stroke-opacity:1"
                     id="path156" /></g></g></g></g></g></g><g
         id="g158"><g
           id="g160"
           clip-path="url(#clipPath164)"><g
             id="g166"
             transform="matrix(2.8689618,0,0,2.8687923,2115.751,1550.88)"><text
               transform="translate(18.623167,40.451923)"
               style="font-variant:normal;font-weight:normal;font-size:17px;font-family:OpenSans;-inkscape-font-specification:OpenSans-Regular;writing-mode:lr-tb;fill:#1a1a1a;fill-opacity:1;fill-rule:nonzero;stroke:none"
               id="text170"><tspan
                 x="0 15.738281 25.275879"
                 y="0"
                 sodipodi:role="line"
                 id="tspan168">Web</tspan></text></g></g></g><g
         id="g172"><g
           id="g174"
           clip-path="url(#clipPath178)"><g
             id="g180"
             clip-path="url(#clipPath184)"><g
               id="g186"
               clip-path="url(#clipPath190)"><g
                 id="g192"
                 clip-path="url(#clipPath196)"><g
                   id="g198"
                   transform="matrix(2.8697679,0,0,2.8687923,2045.9723,705.95026)"><path
                     d="m 38.581821,10.966799 c 0,0 0.747529,0.25019 0.747529,0.25019 0,0 0.426437,-0.662445 0.426437,-0.662445 3.818066,-5.9503823 10.403763,-9.5465377 17.473743,-9.541632 7.738648,0 14.721665,4.2694242 18.313454,10.9668 0,0 0.487206,0.910607 0.487206,0.910607 0,0 0.900482,-0.505443 0.900482,-0.505443 2.644874,-1.483925 5.627678,-2.26085 8.6604,-2.255755 9.789795,0 17.725958,7.936166 17.725958,17.725961 0,0.763736 -0.0486,1.521394 -0.14384,2.269935 0,0 -0.11142,0.868067 -0.11142,0.868067 0,0 0.84275,0.236008 0.84275,0.236008 9.75941,2.731823 16.63202,11.663681 16.63202,21.948791 0,9.489975 -5.85463,17.883976 -14.55555,21.257984 0,0 -0.6665,0.258293 -0.6665,0.258293 0,0 0.0203,0.714104 0.0203,0.714104 0.005,0.186379 0.008,0.372749 0.008,0.560143 0,10.628486 -8.616847,19.24533 -19.245333,19.24533 -3.705018,0.0064 -7.332322,-1.062171 -10.442109,-3.076217 0,0 -0.80223,-0.519623 -0.80223,-0.519623 0,0 -0.565201,0.771835 -0.565201,0.771835 -3.62085,4.962349 -9.396172,7.894238 -15.539086,7.888568 -6.643379,0.005 -12.81855,-3.420321 -16.332195,-9.058474 0,0 -0.49329,-0.790077 -0.49329,-0.790077 0,0 -0.827549,0.425422 -0.827549,0.425422 -3.000065,1.538368 -6.324104,2.33812 -9.695593,2.332741 -11.747755,0 -21.271153,-9.523399 -21.271153,-21.271156 0,-2.625466 0.476068,-5.184082 1.391741,-7.583672 0,0 0.331222,-0.868065 0.331222,-0.868065 0,0 -0.835652,-0.405166 -0.835652,-0.405166 C 4.897397,60.098495 1.0111039,53.898369 1.012912,47.10041 c 0,-8.946037 6.6649616,-16.459819 15.45805,-17.582126 0,0 1.002783,-0.128639 1.002783,-0.128639 0,0 -0.1256,-1.002785 -0.1256,-1.002785 -0.08578,-0.680348 -0.128748,-1.365412 -0.12864,-2.051146 0,-8.951105 7.25549,-16.206593 16.206593,-16.206593 1.774624,0 3.509743,0.284628 5.155723,0.837678 z"
                     style="fill:none;stroke:#1a1a1a;stroke-width:1;stroke-linecap:butt;stroke-linejoin:miter;stroke-miterlimit:10;stroke-dasharray:none;stroke-opacity:1"
                     id="path200" /></g></g></g></g></g></g><g
         id="g202"><g
           id="g204"
           clip-path="url(#clipPath208)"><g
             id="g210"
             transform="matrix(2.8690088,0,0,2.8687923,2115.751,749.53778)"><text
               transform="translate(19.548168,40.451923)"
               style="font-variant:normal;font-weight:normal;font-size:17px;font-family:OpenSans;-inkscape-font-specification:OpenSans-Regular;writing-mode:lr-tb;fill:#1a1a1a;fill-opacity:1;fill-rule:nonzero;stroke:none"
               id="text214"><tspan
                 x="0 10.757812 20.992676 25.732422"
                 y="0"
                 sodipodi:role="line"
                 id="tspan212">APIs</tspan></text></g><g
             id="g216"
             transform="matrix(2.8697679,0,0,2.8687923,1127.0443,209.82481)"><path
               d="M 192,0 H 8 C 7.4747124,0 6.9544716,0.05123925 6.4392772,0.15371777 5.9240832,0.25619629 5.4238353,0.40794495 4.9385328,0.60896379 4.4532304,0.8099826 3.9921989,1.056409 3.555438,1.3482431 3.1186776,1.6400771 2.7145803,1.9717114 2.3431458,2.3431458 1.9717114,2.7145803 1.6400772,3.1186776 1.3482432,3.5554383 1.0564091,3.9921989 0.8099826,4.4532304 0.60896379,4.9385328 0.40794495,5.4238353 0.25619629,5.9240832 0.15371777,6.4392772 0.05123925,6.9544716 0,7.4747124 0,8 v 32 c 0,0.525288 0.05123924,1.045525 0.15371774,1.560719 0.10247849,0.515193 0.25422712,1.015441 0.45524593,1.500743 0.20101881,0.485302 0.44744523,0.946331 0.73927933,1.383091 0.2918341,0.43676 0.6234682,0.840859 0.9949026,1.212296 0.3714342,0.371433 0.7755315,0.703068 1.212292,0.994903 0.4367606,0.291832 0.8977918,0.538258 1.3830943,0.739277 0.4853024,0.20102 0.9855509,0.352768 1.5007453,0.455246 C 6.9544711,47.948753 7.4747119,47.999996 8,48 H 192 M 30,0 v 48"
               style="fill:none;stroke:#1a1a1a;stroke-width:1;stroke-linecap:butt;stroke-linejoin:miter;stroke-miterlimit:10;stroke-dasharray:none;stroke-opacity:1"
               id="path218" /></g><g
             id="g220"
             transform="matrix(2.8694665,0,0,2.8687923,1259.0591,221.29996)"><text
               transform="translate(17.891665,24)"
               style="font-variant:normal;font-weight:normal;font-size:14px;font-family:OpenSans;-inkscape-font-specification:OpenSans-Regular;writing-mode:lr-tb;fill:#1a1a1a;fill-opacity:1;fill-rule:nonzero;stroke:none"
               id="text224"><tspan
                 x="0 7.2666016 15.722656 22.387695 30.173828 33.714844 37.351562 47.557617 55.34375 60.286133 68.072266 74.750977 82.605469 87.547852"
                 y="0"
                 sodipodi:role="line"
                 id="tspan222">Local Datasets</tspan></text></g></g></g><g
         id="g226"><g
           id="g228"
           clip-path="url(#clipPath232)"><g
             id="g234"
             clip-path="url(#clipPath238)"><g
               id="g240"
               clip-path="url(#clipPath244)"><g
                 id="g246"
                 clip-path="url(#clipPath250)"><g
                   id="g252"
                   transform="matrix(2.8697679,0,0,2.8687923,1155.9277,996.55853)"><path
                     d="m 21.210993,0 h 98.984637 l 21.211,101.29121 H 0 Z"
                     style="fill:none;stroke:#1a1a1a;stroke-width:1;stroke-linecap:butt;stroke-linejoin:miter;stroke-miterlimit:10;stroke-dasharray:none;stroke-opacity:1"
                     id="path254" /></g></g></g></g></g></g><g
         id="g256"><g
           id="g258"
           clip-path="url(#clipPath262)"><g
             id="g264"
             transform="matrix(2.8687572,0,0,2.8687923,1257.387,1011.0877)"><text
               transform="translate(8.1599884,39.581043)"
               style="font-variant:normal;font-weight:normal;font-size:14px;font-family:OpenSans;-inkscape-font-specification:OpenSans-Regular;writing-mode:lr-tb;fill:#1a1a1a;fill-opacity:1;fill-rule:nonzero;stroke:none"
               id="text268"><tspan
                 x="0 6.6650391 12.379883 20.166016 31.055664 34.59668 38.137695 46.730469 54.400391"
                 y="0"
                 sodipodi:role="line"
                 id="tspan266">crawling </tspan></text></g><g
             id="g270"
             transform="matrix(2.8704391,0,0,2.8687923,1257.3689,1011.0877)"><text
               transform="translate(14.609989,59.581043)"
               style="font-variant:normal;font-weight:normal;font-size:14px;font-family:OpenSans;-inkscape-font-specification:OpenSans-Regular;writing-mode:lr-tb;fill:#1a1a1a;fill-opacity:1;fill-rule:nonzero;stroke:none"
               id="text274"><tspan
                 x="0 8.5791016 17.171875 25.026367 33.619141"
                 y="0"
                 sodipodi:role="line"
                 id="tspan272">queue</tspan></text></g></g></g><g
         id="g276"><g
           id="g278"
           clip-path="url(#clipPath282)"><g
             id="g284"
             clip-path="url(#clipPath288)"><g
               id="g290"
               clip-path="url(#clipPath294)"><g
                 id="g296"
                 clip-path="url(#clipPath300)"><g
                   id="g302"
                   transform="matrix(2.8697679,0,0,2.8687923,294.86008,56.935501)"><path
                     d="m 21.210993,0 h 98.984637 l 21.211,101.29121 H 0 Z"
                     style="fill:none;stroke:#1a1a1a;stroke-width:1;stroke-linecap:butt;stroke-linejoin:miter;stroke-miterlimit:10;stroke-dasharray:none;stroke-opacity:1"
                     id="path304" /></g></g></g></g></g></g><g
         id="g306"><g
           id="g308"
           clip-path="url(#clipPath312)"><g
             id="g314"
             transform="matrix(2.8704689,0,0,2.8687923,396.30396,71.464668)"><text
               transform="translate(10.234989,39.581043)"
               style="font-variant:normal;font-weight:normal;font-size:14px;font-family:OpenSans;-inkscape-font-specification:OpenSans-Regular;writing-mode:lr-tb;fill:#1a1a1a;fill-opacity:1;fill-rule:nonzero;stroke:none"
               id="text318"><tspan
                 x="0 5.7148438 13.569336 22.148438 30.741211 38.595703 45.274414 50.216797"
                 y="0"
                 sodipodi:role="line"
                 id="tspan316">request </tspan></text></g><g
             id="g320"
             transform="matrix(2.8704391,0,0,2.8687923,396.30133,71.464668)"><text
               transform="translate(14.609989,59.581043)"
               style="font-variant:normal;font-weight:normal;font-size:14px;font-family:OpenSans;-inkscape-font-specification:OpenSans-Regular;writing-mode:lr-tb;fill:#1a1a1a;fill-opacity:1;fill-rule:nonzero;stroke:none"
               id="text324"><tspan
                 x="0 8.5791016 17.171875 25.026367 33.619141"
                 y="0"
                 sodipodi:role="line"
                 id="tspan322">queue</tspan></text></g><g
             id="g326"
             transform="matrix(2.8697679,0,0,2.8687923,323.74344,640.83655)"><path
               d="m 121.27919,59.577759 c 1e-5,1.951248 -0.0973,3.897796 -0.292,5.839645 -0.19466,1.941849 -0.48572,3.869644 -0.87318,5.783394 -0.38745,1.91375 -0.86943,3.804245 -1.44594,5.671471 -0.57652,1.867218 -1.24478,3.702186 -2.00481,5.504898 -0.76002,1.802711 -1.60812,3.564491 -2.54433,5.285339 -0.9362,1.720841 -1.95599,3.392464 -3.05937,5.01487 -1.10337,1.622398 -2.28501,3.187767 -3.54493,4.696106 -1.25991,1.508331 -2.59204,2.952368 -3.99637,4.332108 -1.40432,1.37974 -2.87409,2.68855 -4.40932,3.9264 -1.53521,1.23785 -3.128479,2.3988 -4.7798,3.48285 -1.651306,1.08405 -3.352715,2.08599 -5.104233,3.0058 -1.751518,0.91981 -3.544701,1.75307 -5.379547,2.49978 -1.834839,0.74671 -3.702515,1.40328 -5.60302,1.9697 -1.900505,0.56641 -3.824684,1.03995 -5.772552,1.42061 -1.947853,0.38067 -3.910012,0.66665 -5.886467,0.85791 -1.976464,0.19125 -3.957703,0.28688 -5.943726,0.28688 -1.986019,0 -3.967258,-0.0956 -5.943718,-0.28688 -1.976459,-0.19126 -3.938618,-0.47724 -5.886482,-0.85791 -1.947857,-0.38066 -3.87204,-0.8542 -5.772545,-1.42061 -1.900505,-0.56642 -3.768181,-1.22299 -5.603027,-1.9697 -1.834843,-0.74671 -3.628022,-1.57997 -5.379536,-2.49978 -1.751514,-0.91981 -3.45293,-1.92175 -5.104248,-3.0058 -1.651316,-1.08405 -3.244581,-2.245 -4.779797,-3.48285 -1.535215,-1.23785 -3.004987,-2.54666 -4.409317,-3.9264 -1.404329,-1.37974 -2.736452,-2.823777 -3.996371,-4.332116 -1.259919,-1.508339 -2.441565,-3.073707 -3.54494,-4.696106 C 9.1162405,91.05497 8.0964508,89.383347 7.1602459,87.662506 6.2240424,85.941658 5.3759317,84.179878 4.6159139,82.377167 3.8558965,80.574455 3.1876321,78.739487 2.6111205,76.872269 2.0346088,75.005043 1.5526264,73.114548 1.1651727,71.200798 0.77771914,69.287048 0.48666036,67.359253 0.29199621,65.417404 0.09733206,63.475555 0,61.529007 0,59.577759 0,57.626514 0.09733206,55.67997 0.29199621,53.738121 0.48666036,51.796268 0.77771914,49.868465 1.1651727,47.954712 c 0.3874537,-1.91375 0.8694361,-3.804237 1.4459478,-5.671459 0.5765116,-1.867226 1.244776,-3.702198 2.0047934,-5.504917 0.7600178,-1.802716 1.6081285,-3.564492 2.5443325,-5.285338 0.9362044,-1.720844 1.9559941,-3.392467 3.0593676,-5.01487 1.103375,-1.6224 2.285021,-3.187767 3.54494,-4.6961 1.259919,-1.508333 2.592042,-2.952368 3.996371,-4.332107 1.40433,-1.379738 2.874102,-2.688535 4.409317,-3.926392 1.535216,-1.237857 3.128481,-2.398812 4.779797,-3.482866 C 28.601357,8.9566097 30.302773,7.9546776 32.054287,7.0348663 33.805801,6.115056 35.59898,5.281796 37.433823,4.5350862 39.268669,3.7883773 41.136345,3.1318145 43.036846,2.565398 44.937355,1.9989815 46.861534,1.5254388 48.809391,1.1447698 50.757256,0.76410079 52.719418,0.47813863 54.695877,0.28688318 56.672337,0.09562773 58.653576,0 60.639595,0 c 1.986023,0 3.967262,0.09562773 5.943726,0.28688318 1.976455,0.19125545 3.938614,0.47721761 5.886474,0.85788662 1.947861,0.380669 3.872048,0.8542117 5.772553,1.4206282 1.900505,0.5664165 3.768173,1.2229793 5.603012,1.9696882 1.834846,0.7467098 3.628029,1.5799698 5.379547,2.4997797 1.751518,0.9198107 3.452927,1.9217429 5.104233,3.0057961 1.651321,1.084054 3.24459,2.245009 4.7798,3.482866 1.53523,1.237857 3.005,2.546655 4.40932,3.926393 1.40433,1.379739 2.73646,2.823774 3.99638,4.332107 1.25991,1.508333 2.44155,3.0737 3.54492,4.6961 1.10338,1.622403 2.12317,3.294026 3.05937,5.01487 0.93621,1.720846 1.78431,3.482622 2.54433,5.285338 0.76003,1.802719 1.42829,3.637691 2.0048,5.504913 0.57651,1.867226 1.05849,3.757713 1.44594,5.671463 0.38746,1.913753 0.67853,3.841556 0.87319,5.783409 0.19467,1.941849 0.29201,3.888393 0.292,5.839638 z"
               style="fill:#ffffff;fill-opacity:1;fill-rule:nonzero;stroke:none"
               id="path328" /><path
               d="m 121.27919,59.577759 c 1e-5,1.951248 -0.0973,3.897796 -0.292,5.839645 -0.19466,1.941849 -0.48572,3.869644 -0.87318,5.783394 -0.38745,1.91375 -0.86943,3.804245 -1.44594,5.671471 -0.57652,1.867218 -1.24478,3.702186 -2.00481,5.504898 -0.76002,1.802711 -1.60812,3.564491 -2.54433,5.285339 -0.9362,1.720841 -1.95599,3.392464 -3.05937,5.01487 -1.10337,1.622398 -2.28501,3.187767 -3.54493,4.696106 -1.25991,1.508331 -2.59204,2.952368 -3.99637,4.332108 -1.40432,1.37974 -2.87409,2.68855 -4.40932,3.9264 -1.53521,1.23785 -3.128479,2.3988 -4.7798,3.48285 -1.651306,1.08405 -3.352715,2.08599 -5.104233,3.0058 -1.751518,0.91981 -3.544701,1.75307 -5.379547,2.49978 -1.834839,0.74671 -3.702515,1.40328 -5.60302,1.9697 -1.900505,0.56641 -3.824684,1.03995 -5.772552,1.42061 -1.947853,0.38067 -3.910012,0.66665 -5.886467,0.85791 -1.976464,0.19125 -3.957703,0.28688 -5.943726,0.28688 -1.986019,0 -3.967258,-0.0956 -5.943718,-0.28688 -1.976459,-0.19126 -3.938618,-0.47724 -5.886482,-0.85791 -1.947857,-0.38066 -3.87204,-0.8542 -5.772545,-1.42061 -1.900505,-0.56642 -3.768181,-1.22299 -5.603027,-1.9697 -1.834843,-0.74671 -3.628022,-1.57997 -5.379536,-2.49978 -1.751514,-0.91981 -3.45293,-1.92175 -5.104248,-3.0058 -1.651316,-1.08405 -3.244581,-2.245 -4.779797,-3.48285 -1.535215,-1.23785 -3.004987,-2.54666 -4.409317,-3.9264 -1.404329,-1.37974 -2.736452,-2.823777 -3.996371,-4.332116 -1.259919,-1.508339 -2.441565,-3.073707 -3.54494,-4.696106 C 9.1162405,91.05497 8.0964508,89.383347 7.1602459,87.662506 6.2240424,85.941658 5.3759317,84.179878 4.6159139,82.377167 3.8558965,80.574455 3.1876321,78.739487 2.6111205,76.872269 2.0346088,75.005043 1.5526264,73.114548 1.1651727,71.200798 0.77771914,69.287048 0.48666036,67.359253 0.29199621,65.417404 0.09733206,63.475555 0,61.529007 0,59.577759 0,57.626514 0.09733206,55.67997 0.29199621,53.738121 0.48666036,51.796268 0.77771914,49.868465 1.1651727,47.954712 c 0.3874537,-1.91375 0.8694361,-3.804237 1.4459478,-5.671459 0.5765116,-1.867226 1.244776,-3.702198 2.0047934,-5.504917 0.7600178,-1.802716 1.6081285,-3.564492 2.5443325,-5.285338 0.9362044,-1.720844 1.9559941,-3.392467 3.0593676,-5.01487 1.103375,-1.6224 2.285021,-3.187767 3.54494,-4.6961 1.259919,-1.508333 2.592042,-2.952368 3.996371,-4.332107 1.40433,-1.379738 2.874102,-2.688535 4.409317,-3.926392 1.535216,-1.237857 3.128481,-2.398812 4.779797,-3.482866 C 28.601357,8.9566097 30.302773,7.9546776 32.054287,7.0348663 33.805801,6.115056 35.59898,5.281796 37.433823,4.5350862 39.268669,3.7883773 41.136345,3.1318145 43.036846,2.565398 44.937355,1.9989815 46.861534,1.5254388 48.809391,1.1447698 50.757256,0.76410079 52.719418,0.47813863 54.695877,0.28688318 56.672337,0.09562773 58.653576,0 60.639595,0 c 1.986023,0 3.967262,0.09562773 5.943726,0.28688318 1.976455,0.19125545 3.938614,0.47721761 5.886474,0.85788662 1.947861,0.380669 3.872048,0.8542117 5.772553,1.4206282 1.900505,0.5664165 3.768173,1.2229793 5.603012,1.9696882 1.834846,0.7467098 3.628029,1.5799698 5.379547,2.4997797 1.751518,0.9198107 3.452927,1.9217429 5.104233,3.0057961 1.651321,1.084054 3.24459,2.245009 4.7798,3.482866 1.53523,1.237857 3.005,2.546655 4.40932,3.926393 1.40433,1.379739 2.73646,2.823774 3.99638,4.332107 1.25991,1.508333 2.44155,3.0737 3.54492,4.6961 1.10338,1.622403 2.12317,3.294026 3.05937,5.01487 0.93621,1.720846 1.78431,3.482622 2.54433,5.285338 0.76003,1.802719 1.42829,3.637691 2.0048,5.504913 0.57651,1.867226 1.05849,3.757713 1.44594,5.671463 0.38746,1.913753 0.67853,3.841556 0.87319,5.783409 0.19467,1.941849 0.29201,3.888393 0.292,5.839638 z"
               style="fill:none;stroke:#1a1a1a;stroke-width:1;stroke-linecap:butt;stroke-linejoin:miter;stroke-miterlimit:10;stroke-dasharray:none;stroke-opacity:1"
               id="path330" /></g><g
             id="g332"
             transform="matrix(2.868149,0,0,2.8687923,374.75388,690.89673)"><text
               transform="translate(25.145336,36.127838)"
               style="font-variant:normal;font-weight:normal;font-size:14px;font-family:OpenSans;-inkscape-font-specification:OpenSans-Regular;writing-mode:lr-tb;fill:#333333;fill-opacity:1;fill-rule:nonzero;stroke:none"
               id="text336"><tspan
                 x="0 3.5410156 12.133789 15.674805 20.617188 24.158203 31.944336 35.485352"
                 y="0"
                 sodipodi:role="line"
                 id="tspan334">initial </tspan></text></g><g
             id="g338"
             transform="matrix(2.8694129,0,0,2.8687923,374.71747,690.89673)"><text
               transform="translate(12.10367,56.127838)"
               style="font-variant:normal;font-weight:normal;font-size:14px;font-family:OpenSans;-inkscape-font-specification:OpenSans-Regular;writing-mode:lr-tb;fill:#333333;fill-opacity:1;fill-rule:nonzero;stroke:none"
               id="text342"><tspan
                 x="0 8.5791016 12.120117 18.798828 25.463867 33.919922 40.933594 48.788086 54.50293"
                 y="0"
                 sodipodi:role="line"
                 id="tspan340">discovery</tspan></text></g><g
             id="g344"
             transform="matrix(2.8697679,0,0,2.8687923,497.76178,347.51257)"><path
               d="M 0,0.80000001 V 92.062714"
               style="fill:none;stroke:#333333;stroke-width:1;stroke-linecap:butt;stroke-linejoin:miter;stroke-miterlimit:10;stroke-dasharray:none;stroke-opacity:1"
               id="path346" /></g><g
             id="g348"
             transform="matrix(0,2.8687923,-2.8697679,0,497.76178,640.83087)"><path
               d="M -12.727273,-7.5454545 0,0 -12.727273,7.5454545 Z"
               style="fill:#333333;fill-opacity:1;fill-rule:nonzero;stroke:none"
               id="path350" /></g><g
             id="g352"
             transform="matrix(2.8697679,0,0,2.8687923,664.94177,347.51257)"><path
               d="M 257.0239,0.80000001 V 137.22971 c 0,5.33332 -2.66668,8 -8.00002,8 H 10.181818"
               style="fill:none;stroke:#333333;stroke-width:1;stroke-linecap:butt;stroke-linejoin:miter;stroke-miterlimit:10;stroke-dasharray:none;stroke-opacity:1"
               id="path354" /></g><g
             id="g356"
             transform="matrix(-2.8697679,0,0,-2.8687923,664.94177,764.14642)"><path
               d="M -12.727273,-7.5454545 0,0 -12.727273,7.5454545 Z"
               style="fill:#333333;fill-opacity:1;fill-rule:nonzero;stroke:none"
               id="path358" /></g><g
             id="g360"
             transform="matrix(2.8697679,0,0,2.8687923,666.72162,850.56763)"><path
               d="M 481.13947,0 H 338.46454 c -0.26315,0 -0.39472,0.13156679 -0.39472,0.39470044 0,0.26313361 -0.13156,0.39470038 -0.39468,0.39470038 H 10.181818"
               style="fill:none;stroke:#333333;stroke-width:1;stroke-linecap:butt;stroke-linejoin:miter;stroke-miterlimit:10;stroke-dasharray:none;stroke-opacity:1"
               id="path362" /></g><g
             id="g364"
             transform="matrix(-2.8697679,0,0,-2.8687923,666.72162,852.83221)"><path
               d="M -12.727273,-7.5454545 0,0 -12.727273,7.5454545 Z"
               style="fill:#333333;fill-opacity:1;fill-rule:nonzero;stroke:none"
               id="path366" /></g><g
             id="g368"
             transform="matrix(2.8697679,0,0,2.8687923,323.74344,1481.6653)"><path
               d="m 121.27919,59.577759 c 1e-5,1.951248 -0.0973,3.897796 -0.292,5.839645 -0.19466,1.941849 -0.48572,3.869644 -0.87318,5.783394 -0.38745,1.91375 -0.86943,3.804245 -1.44594,5.671471 -0.57652,1.867218 -1.24478,3.702186 -2.00481,5.504898 -0.76002,1.802711 -1.60812,3.564491 -2.54433,5.285339 -0.9362,1.720841 -1.95599,3.392464 -3.05937,5.01487 -1.10337,1.622398 -2.28501,3.187767 -3.54493,4.696106 -1.25991,1.508331 -2.59204,2.952368 -3.99637,4.332108 -1.40432,1.37974 -2.87409,2.68855 -4.40932,3.9264 -1.53521,1.23785 -3.128479,2.3988 -4.7798,3.48285 -1.651306,1.08405 -3.352715,2.08599 -5.104233,3.0058 -1.751518,0.91981 -3.544701,1.75307 -5.379547,2.49978 -1.834839,0.74671 -3.702515,1.40328 -5.60302,1.9697 -1.900505,0.56641 -3.824684,1.03995 -5.772552,1.42061 -1.947853,0.38067 -3.910012,0.66665 -5.886467,0.85791 -1.976464,0.19125 -3.957703,0.28688 -5.943726,0.28688 -1.986019,0 -3.967258,-0.0956 -5.943718,-0.28688 -1.976459,-0.19126 -3.938618,-0.47724 -5.886482,-0.85791 -1.947857,-0.38066 -3.87204,-0.8542 -5.772545,-1.42061 -1.900505,-0.56642 -3.768181,-1.22299 -5.603027,-1.9697 -1.834843,-0.74671 -3.628022,-1.57997 -5.379536,-2.49978 -1.751514,-0.91981 -3.45293,-1.92175 -5.104248,-3.0058 -1.651316,-1.08405 -3.244581,-2.245 -4.779797,-3.48285 -1.535215,-1.23785 -3.004987,-2.54666 -4.409317,-3.9264 -1.404329,-1.37974 -2.736452,-2.823777 -3.996371,-4.332116 -1.259919,-1.508339 -2.441565,-3.073707 -3.54494,-4.696106 C 9.1162405,91.05497 8.0964508,89.383347 7.1602459,87.662506 6.2240424,85.941658 5.3759317,84.179878 4.6159139,82.377167 3.8558965,80.574455 3.1876321,78.739487 2.6111205,76.872269 2.0346088,75.005043 1.5526264,73.114548 1.1651727,71.200798 0.77771914,69.287048 0.48666036,67.359253 0.29199621,65.417404 0.09733206,63.475555 0,61.529007 0,59.577759 0,57.626514 0.09733206,55.67997 0.29199621,53.738121 0.48666036,51.796268 0.77771914,49.868465 1.1651727,47.954712 c 0.3874537,-1.91375 0.8694361,-3.804237 1.4459478,-5.671459 0.5765116,-1.867226 1.244776,-3.702198 2.0047934,-5.504917 0.7600178,-1.802716 1.6081285,-3.564492 2.5443325,-5.285338 0.9362044,-1.720844 1.9559941,-3.392467 3.0593676,-5.01487 1.103375,-1.6224 2.285021,-3.187767 3.54494,-4.6961 1.259919,-1.508333 2.592042,-2.952368 3.996371,-4.332107 1.40433,-1.379738 2.874102,-2.688535 4.409317,-3.926392 1.535216,-1.237857 3.128481,-2.398812 4.779797,-3.482866 C 28.601357,8.9566097 30.302773,7.9546776 32.054287,7.0348663 33.805801,6.115056 35.59898,5.281796 37.433823,4.5350862 39.268669,3.7883773 41.136345,3.1318145 43.036846,2.565398 44.937355,1.9989815 46.861534,1.5254388 48.809391,1.1447698 50.757256,0.76410079 52.719418,0.47813863 54.695877,0.28688318 56.672337,0.09562773 58.653576,0 60.639595,0 c 1.986023,0 3.967262,0.09562773 5.943726,0.28688318 1.976455,0.19125545 3.938614,0.47721761 5.886474,0.85788662 1.947861,0.380669 3.872048,0.8542117 5.772553,1.4206282 1.900505,0.5664165 3.768173,1.2229793 5.603012,1.9696882 1.834846,0.7467098 3.628029,1.5799698 5.379547,2.4997797 1.751518,0.9198107 3.452927,1.9217429 5.104233,3.0057961 1.651321,1.084054 3.24459,2.245009 4.7798,3.482866 1.53523,1.237857 3.005,2.546655 4.40932,3.926393 1.40433,1.379739 2.73646,2.823774 3.99638,4.332107 1.25991,1.508333 2.44155,3.0737 3.54492,4.6961 1.10338,1.622403 2.12317,3.294026 3.05937,5.01487 0.93621,1.720846 1.78431,3.482622 2.54433,5.285338 0.76003,1.802719 1.42829,3.637691 2.0048,5.504913 0.57651,1.867226 1.05849,3.757713 1.44594,5.671463 0.38746,1.913753 0.67853,3.841556 0.87319,5.783409 0.19467,1.941849 0.29201,3.888393 0.292,5.839638 z"
               style="fill:#ffffff;fill-opacity:1;fill-rule:nonzero;stroke:none"
               id="path370" /><path
               d="m 121.27919,59.577759 c 1e-5,1.951248 -0.0973,3.897796 -0.292,5.839645 -0.19466,1.941849 -0.48572,3.869644 -0.87318,5.783394 -0.38745,1.91375 -0.86943,3.804245 -1.44594,5.671471 -0.57652,1.867218 -1.24478,3.702186 -2.00481,5.504898 -0.76002,1.802711 -1.60812,3.564491 -2.54433,5.285339 -0.9362,1.720841 -1.95599,3.392464 -3.05937,5.01487 -1.10337,1.622398 -2.28501,3.187767 -3.54493,4.696106 -1.25991,1.508331 -2.59204,2.952368 -3.99637,4.332108 -1.40432,1.37974 -2.87409,2.68855 -4.40932,3.9264 -1.53521,1.23785 -3.128479,2.3988 -4.7798,3.48285 -1.651306,1.08405 -3.352715,2.08599 -5.104233,3.0058 -1.751518,0.91981 -3.544701,1.75307 -5.379547,2.49978 -1.834839,0.74671 -3.702515,1.40328 -5.60302,1.9697 -1.900505,0.56641 -3.824684,1.03995 -5.772552,1.42061 -1.947853,0.38067 -3.910012,0.66665 -5.886467,0.85791 -1.976464,0.19125 -3.957703,0.28688 -5.943726,0.28688 -1.986019,0 -3.967258,-0.0956 -5.943718,-0.28688 -1.976459,-0.19126 -3.938618,-0.47724 -5.886482,-0.85791 -1.947857,-0.38066 -3.87204,-0.8542 -5.772545,-1.42061 -1.900505,-0.56642 -3.768181,-1.22299 -5.603027,-1.9697 -1.834843,-0.74671 -3.628022,-1.57997 -5.379536,-2.49978 -1.751514,-0.91981 -3.45293,-1.92175 -5.104248,-3.0058 -1.651316,-1.08405 -3.244581,-2.245 -4.779797,-3.48285 -1.535215,-1.23785 -3.004987,-2.54666 -4.409317,-3.9264 -1.404329,-1.37974 -2.736452,-2.823777 -3.996371,-4.332116 -1.259919,-1.508339 -2.441565,-3.073707 -3.54494,-4.696106 C 9.1162405,91.05497 8.0964508,89.383347 7.1602459,87.662506 6.2240424,85.941658 5.3759317,84.179878 4.6159139,82.377167 3.8558965,80.574455 3.1876321,78.739487 2.6111205,76.872269 2.0346088,75.005043 1.5526264,73.114548 1.1651727,71.200798 0.77771914,69.287048 0.48666036,67.359253 0.29199621,65.417404 0.09733206,63.475555 0,61.529007 0,59.577759 0,57.626514 0.09733206,55.67997 0.29199621,53.738121 0.48666036,51.796268 0.77771914,49.868465 1.1651727,47.954712 c 0.3874537,-1.91375 0.8694361,-3.804237 1.4459478,-5.671459 0.5765116,-1.867226 1.244776,-3.702198 2.0047934,-5.504917 0.7600178,-1.802716 1.6081285,-3.564492 2.5443325,-5.285338 0.9362044,-1.720844 1.9559941,-3.392467 3.0593676,-5.01487 1.103375,-1.6224 2.285021,-3.187767 3.54494,-4.6961 1.259919,-1.508333 2.592042,-2.952368 3.996371,-4.332107 1.40433,-1.379738 2.874102,-2.688535 4.409317,-3.926392 1.535216,-1.237857 3.128481,-2.398812 4.779797,-3.482866 C 28.601357,8.9566097 30.302773,7.9546776 32.054287,7.0348663 33.805801,6.115056 35.59898,5.281796 37.433823,4.5350862 39.268669,3.7883773 41.136345,3.1318145 43.036846,2.565398 44.937355,1.9989815 46.861534,1.5254388 48.809391,1.1447698 50.757256,0.76410079 52.719418,0.47813863 54.695877,0.28688318 56.672337,0.09562773 58.653576,0 60.639595,0 c 1.986023,0 3.967262,0.09562773 5.943726,0.28688318 1.976455,0.19125545 3.938614,0.47721761 5.886474,0.85788662 1.947861,0.380669 3.872048,0.8542117 5.772553,1.4206282 1.900505,0.5664165 3.768173,1.2229793 5.603012,1.9696882 1.834846,0.7467098 3.628029,1.5799698 5.379547,2.4997797 1.751518,0.9198107 3.452927,1.9217429 5.104233,3.0057961 1.651321,1.084054 3.24459,2.245009 4.7798,3.482866 1.53523,1.237857 3.005,2.546655 4.40932,3.926393 1.40433,1.379739 2.73646,2.823774 3.99638,4.332107 1.25991,1.508333 2.44155,3.0737 3.54492,4.6961 1.10338,1.622403 2.12317,3.294026 3.05937,5.01487 0.93621,1.720846 1.78431,3.482622 2.54433,5.285338 0.76003,1.802719 1.42829,3.637691 2.0048,5.504913 0.57651,1.867226 1.05849,3.757713 1.44594,5.671463 0.38746,1.913753 0.67853,3.841556 0.87319,5.783409 0.19467,1.941849 0.29201,3.888393 0.292,5.839638 z"
               style="fill:none;stroke:#1a1a1a;stroke-width:1;stroke-linecap:butt;stroke-linejoin:miter;stroke-miterlimit:10;stroke-dasharray:none;stroke-opacity:1"
               id="path372" /></g><g
             id="g374"
             transform="matrix(2.8688259,0,0,2.8687923,374.71631,1531.7255)"><text
               transform="translate(3.3286684,46.127838)"
               style="font-variant:normal;font-weight:normal;font-size:14px;font-family:OpenSans;-inkscape-font-specification:OpenSans-Regular;writing-mode:lr-tb;fill:#333333;fill-opacity:1;fill-rule:nonzero;stroke:none"
               id="text378"><tspan
                 x="0 10.889648 18.744141 27.323242 30.959961 37.625 43.339844 51.125977 62.015625 65.556641 73.411133"
                 y="0"
                 sodipodi:role="line"
                 id="tspan376">web crawler</tspan></text></g><g
             id="g380"
             transform="matrix(2.8697679,0,0,2.8687923,671.78015,1651.8787)"><path
               d="M 479.37711,0 H 239.54793 c -0.0803,0 -0.12044,0.04014908 -0.12044,0.12044723 0,0.0802981 -0.0402,0.12044722 -0.12045,0.12044722 H 10.181818"
               style="fill:none;stroke:#333333;stroke-width:1;stroke-linecap:butt;stroke-linejoin:miter;stroke-miterlimit:10;stroke-dasharray:none;stroke-opacity:1"
               id="path382" /></g><g
             id="g384"
             transform="matrix(-2.8697679,0,0,-2.8687923,671.78015,1652.5697)"><path
               d="M -12.727273,-7.5454545 0,0 -12.727273,7.5454545 Z"
               style="fill:#333333;fill-opacity:1;fill-rule:nonzero;stroke:none"
               id="path386" /></g><g
             id="g388"
             transform="matrix(2.8697679,0,0,2.8687923,497.76178,1287.1356)"><path
               d="M 300.0477,0.80000001 V 25.904209 c 0,5.333334 -2.66666,8 -8,8 H 8 c -5.3333335,0 -8,2.666668 -8,8 v 15.722389"
               style="fill:none;stroke:#333333;stroke-width:1;stroke-linecap:butt;stroke-linejoin:miter;stroke-miterlimit:10;stroke-dasharray:none;stroke-opacity:1"
               id="path390" /></g><g
             id="g392"
             transform="matrix(0,2.8687923,-2.8697679,0,497.76178,1481.6638)"><path
               d="M -12.727273,-7.5454545 0,0 -12.727273,7.5454545 Z"
               style="fill:#333333;fill-opacity:1;fill-rule:nonzero;stroke:none"
               id="path394" /></g><g
             id="g396"
             transform="matrix(2.8697679,0,0,2.8687923,497.76178,1823.4967)"><path
               d="M 0,0.80000001 V 67.349022"
               style="fill:none;stroke:#333333;stroke-width:1;stroke-linecap:butt;stroke-linejoin:miter;stroke-miterlimit:10;stroke-dasharray:none;stroke-opacity:1"
               id="path398" /></g><g
             id="g400"
             transform="matrix(0,2.8687923,-2.8697679,0,497.76178,2045.9166)"><path
               d="M -12.727273,-7.5454545 0,0 -12.727273,7.5454545 Z"
               style="fill:#333333;fill-opacity:1;fill-rule:nonzero;stroke:none"
               id="path402" /></g><g
             id="g404"
             transform="matrix(2.8697679,0,0,2.8687923,497.76178,982.66803)"><path
               d="M 229.32253,57.609726 H 8 c -5.3333335,0 -8,-2.666668 -8,-8 V 0.80000001"
               style="fill:none;stroke:#333333;stroke-width:1;stroke-linecap:butt;stroke-linejoin:miter;stroke-miterlimit:10;stroke-dasharray:none;stroke-opacity:1"
               id="path406" /></g><g
             id="g408"
             transform="matrix(2.8697679,0,0,2.8687923,1185.0837,1147.9384)"><path
               d="M -12.727273,-7.5454545 0,0 -12.727273,7.5454545 Z"
               style="fill:#333333;fill-opacity:1;fill-rule:nonzero;stroke:none"
               id="path410" /></g><g
             id="g412"
             transform="matrix(2.8697679,0,0,2.8687923,163.77646,811.73663)"><path
               d="M 45.658154,482.97348 H 8 c -5.3333335,0 -8,-2.66666 -8,-8 V 8 C 0,2.6666665 2.6666665,0 8,0 h 46.943718"
               style="fill:none;stroke:#333333;stroke-width:1;stroke-linecap:butt;stroke-linejoin:miter;stroke-miterlimit:10;stroke-dasharray:none;stroke-opacity:1"
               id="path414" /></g><g
             id="g416"
             transform="matrix(2.8697679,0,0,2.8687923,324.02423,2197.2874)"><path
               d="M -12.727273,-7.5454545 0,0 -12.727273,7.5454545 Z"
               style="fill:#333333;fill-opacity:1;fill-rule:nonzero;stroke:none"
               id="path418" /></g></g></g></g></g></svg>
